{
  "code":"0",
  "msg":"成功",
  "result":{
    "content":[{
      "label": "一级 李鸿文 tree组件",
      "children": [{
        "label": "二级 1-1",
        "children": [{
          "label": "三级 1-1-1"
        }]
      }]
    }, {
      "label": "一级 2",
      "children": [{
        "label": "二级 2-1",
        "children": [{
          "label": "三级 2-1-1"
        }]
      }, {
        "label": "二级 2-2",
        "children": [{
          "label": "三级 2-2-1"
        }]
      }]
    }, {
      "label": "一级 3",
      "children": [{
        "label":"二级 3-1",
        "children": [{
          "label": "三级 3-1-1"
        }]
      }, {
        "label": "二级 3-2",
        "children": [{
          "label": "三级 3-2-1"
        }]
      }]
    }],
    "number": 1,
    "size": 1,
    "totalPages": 3,
    "totalElements": 15,
    "extraMap": null

  }
}